<?xml version="1.0" encoding="UTF-8"?>
<svg width="20px" height="20px" viewBox="0 0 20 20" version="1.1" xmlns="http://www.w3.org/2000/svg" xmlns:xlink="http://www.w3.org/1999/xlink">
    <!-- Generator: Sketch 60.1 (88133) - https://sketch.com -->
    <title>Alert</title>
    <desc>Created with Sketch.</desc>
    <g id="Page-1" stroke="none" stroke-width="1" fill="none" fill-rule="evenodd">
        <g id="colors" transform="translate(-186.000000, -830.000000)" fill="#E91E63">
            <g id="Alert" transform="translate(186.000000, 830.000000)">
                <path d="M10.1023256,0.186046512 C4.7079164,0.186046512 0.334883721,4.55907919 0.334883721,9.95348837 C0.334883721,15.3478976 4.7079164,19.7209302 10.1023256,19.7209302 C15.4967348,19.7209302 19.8697674,15.3478976 19.8697674,9.95348837 C19.8697674,4.55907919 15.4967348,0.186046512 10.1023256,0.186046512 L10.1023256,0.186046512 Z M10.1023256,18.3255814 C5.47854628,18.3255814 1.73023256,14.5772677 1.73023256,9.95348837 C1.73023256,5.32970907 5.47854628,1.58139535 10.1023256,1.58139535 C14.7261049,1.58139535 18.4744186,5.32970907 18.4744186,9.95348837 C18.4744186,14.5772677 14.7261049,18.3255814 10.1023256,18.3255814 Z" id="Shape"></path>
                <path d="M10,4 C9.44771525,4 9,4.43454715 9,4.97058824 L9,12.0294118 C9,12.5654528 9.44771525,13 10,13 C10.5522847,13 11,12.5654528 11,12.0294118 L11,4.97058824 C11,4.43454715 10.5522847,4 10,4 Z" id="Shape"></path>
                <circle id="Oval" cx="10" cy="15" r="1"></circle>
            </g>
        </g>
    </g>
</svg>